^C:\USERS\RONAN\DOCUMENTS\VISUALSTUDIO\PROJECTS\CA3\CA3\SOURCE.CPP
C:\USERS\RONAN\DOCUMENTS\VISUALSTUDIO\PROJECTS\CA3\CA3\DEBUG\VC120.PDB
C:\USERS\RONAN\DOCUMENTS\VISUALSTUDIO\PROJECTS\CA3\CA3\DEBUG\VC120.IDB
C:\USERS\RONAN\DOCUMENTS\VISUALSTUDIO\PROJECTS\CA3\CA3\DEBUG\SOURCE.OBJ
^C:\USERS\RONAN\DOCUMENTS\VISUALSTUDIO\PROJECTS\CA3\CA3\SOURCE.CPP|C:\USERS\RONAN\DOCUMENTS\VISUALSTUDIO\PROJECTS\CA3\CA3\SOURCE1.CPP
C:\USERS\RONAN\DOCUMENTS\VISUALSTUDIO\PROJECTS\CA3\CA3\DEBUG\VC120.PDB
C:\USERS\RONAN\DOCUMENTS\VISUALSTUDIO\PROJECTS\CA3\CA3\DEBUG\VC120.IDB
C:\USERS\RONAN\DOCUMENTS\VISUALSTUDIO\PROJECTS\CA3\CA3\DEBUG\SOURCE.OBJ
^C:\USERS\RONAN\DOCUMENTS\VISUALSTUDIO\PROJECTS\CA3\CA3\SOURCE1.CPP
C:\USERS\RONAN\DOCUMENTS\VISUALSTUDIO\PROJECTS\CA3\CA3\DEBUG\VC120.PDB
C:\USERS\RONAN\DOCUMENTS\VISUALSTUDIO\PROJECTS\CA3\CA3\DEBUG\VC120.IDB
C:\USERS\RONAN\DOCUMENTS\VISUALSTUDIO\PROJECTS\CA3\CA3\DEBUG\SOURCE1.OBJ
